tb/sysc_wave.vcd
$date
     Feb 12, 2026       07:35:33
$end

$version
 SystemC 2.3.3-Accellera --- Feb 10 2026 07:23:43
$end

$timescale
     1 ns
$end

$scope module SystemC $end
$var wire    1  aaaaa  clk       $end
$var wire    1  aaaab  rst       $end
$var wire    1  aaaac  clk_in       $end
$var wire    1  aaaad  rst_in       $end
$var wire   32  aaaae  reset_vector_in [31:0]  $end
$var wire    1  aaaaf  rst_cpu_in       $end
$var wire    1  aaaag  spi_clk_out       $end
$var wire    1  aaaah  spi_miso_in       $end
$var wire    1  aaaai  spi_mosi_out       $end
$var wire    1  aaaaj  spi_cs_out       $end
$var wire    1  aaaak  uart_rxd_out       $end
$var wire    1  aaaal  uart_txd_in       $end
$var wire   32  aaaam  gpio_output_out [31:0]  $end
$var wire   32  aaaan  gpio_input_in [31:0]  $end
$var wire   32  aaaao  gpio_output_enable_out [31:0]  $end
$var wire    1  aaaap  inport_in/awvalid       $end
$var wire   32  aaaaq  inport_in/awaddr [31:0]  $end
$var wire    1  aaaar  inport_in/wvalid       $end
$var wire   32  aaaas  inport_in/wdata [31:0]  $end
$var wire    4  aaaat  inport_in/wstrb [3:0]  $end
$var wire    1  aaaau  inport_in/bready       $end
$var wire    1  aaaav  inport_in/arvalid       $end
$var wire   32  aaaaw  inport_in/araddr [31:0]  $end
$var wire    1  aaaax  inport_in/rready       $end
$var wire    1  aaaay  inport_out/awready       $end
$var wire    1  aaaaz  inport_out/wready       $end
$var wire    1  aaaba  inport_out/bvalid       $end
$var wire    2  aaabb  inport_out/bresp [1:0]  $end
$var wire    1  aaabc  inport_out/arready       $end
$var wire    1  aaabd  inport_out/rvalid       $end
$var wire   32  aaabe  inport_out/rdata [31:0]  $end
$var wire    2  aaabf  inport_out/rresp [1:0]  $end
$var wire    1  aaabg  mem_in/awready       $end
$var wire    1  aaabh  mem_in/wready       $end
$var wire    1  aaabi  mem_in/bvalid       $end
$var wire    2  aaabj  mem_in/bresp [1:0]  $end
$var wire    4  aaabk  mem_in/bid [3:0]  $end
$var wire    1  aaabl  mem_in/arready       $end
$var wire    1  aaabm  mem_in/rvalid       $end
$var wire   32  aaabn  mem_in/rdata [31:0]  $end
$var wire    2  aaabo  mem_in/rresp [1:0]  $end
$var wire    4  aaabp  mem_in/rid [3:0]  $end
$var wire    1  aaabq  mem_in/rlast       $end
$var wire    1  aaabr  mem_out/awvalid       $end
$var wire   32  aaabs  mem_out/awaddr [31:0]  $end
$var wire    4  aaabt  mem_out/awid [3:0]  $end
$var wire    8  aaabu  mem_out/awlen [7:0]  $end
$var wire    2  aaabv  mem_out/awburst [1:0]  $end
$var wire    1  aaabw  mem_out/wvalid       $end
$var wire   32  aaabx  mem_out/wdata [31:0]  $end
$var wire    4  aaaby  mem_out/wstrb [3:0]  $end
$var wire    1  aaabz  mem_out/wlast       $end
$var wire    1  aaaca  mem_out/bready       $end
$var wire    1  aaacb  mem_out/arvalid       $end
$var wire   32  aaacc  mem_out/araddr [31:0]  $end
$var wire    4  aaacd  mem_out/arid [3:0]  $end
$var wire    8  aaace  mem_out/arlen [7:0]  $end
$var wire    2  aaacf  mem_out/arburst [1:0]  $end
$var wire    1  aaacg  mem_out/rready       $end
$upscope $end
$enddefinitions  $end

$comment
All initial values are dumped below at time 0 sec = 0 timescale units.
$end

$dumpvars
1aaaaa
1aaaab
1aaaac
1aaaad
b0 aaaae
0aaaaf
0aaaag
0aaaah
0aaaai
1aaaaj
1aaaak
0aaaal
b0 aaaam
b0 aaaan
b0 aaaao
0aaaap
b0 aaaaq
0aaaar
b0 aaaas
b0 aaaat
0aaaau
0aaaav
b0 aaaaw
0aaaax
0aaaay
0aaaaz
0aaaba
b0 aaabb
0aaabc
0aaabd
b0 aaabe
b0 aaabf
1aaabg
1aaabh
0aaabi
b0 aaabj
b0 aaabk
1aaabl
0aaabm
b0 aaabn
b0 aaabo
b0 aaabp
0aaabq
0aaabr
b0 aaabs
b0 aaabt
b0 aaabu
b0 aaabv
0aaabw
b0 aaabx
b0 aaaby
0aaabz
1aaaca
0aaacb
b0 aaacc
b0 aaacd
b0 aaace
b0 aaacf
1aaacg
$end

#5
0aaaaa
0aaaac

#10
1aaaaa
0aaaab
1aaaac
0aaaad
b10000000000000 aaaae
1aaaaf

#15
0aaaaa
0aaaac

#20
1aaaaa
1aaaac
0aaaaf

#25
0aaaaa
0aaaac

#30
1aaaaa
1aaaac

#35
0aaaaa
0aaaac

#40
1aaaaa
1aaaac

#45
0aaaaa
0aaaac

#50
1aaaaa
1aaaac

#55
0aaaaa
0aaaac

#60
1aaaaa
1aaaac

#65
0aaaaa
0aaaac

#70
1aaaaa
1aaaac

#75
0aaaaa
0aaaac

#80
1aaaaa
1aaaac

#85
0aaaaa
0aaaac

#90
1aaaaa
1aaaac

#95
0aaaaa
0aaaac

#100
1aaaaa
1aaaac

#105
0aaaaa
0aaaac

#110
1aaaaa
1aaaac

#115
0aaaaa
0aaaac

#120
1aaaaa
1aaaac

#125
0aaaaa
0aaaac

#130
1aaaaa
1aaaac

#135
0aaaaa
0aaaac

#140
1aaaaa
1aaaac

#145
0aaaaa
0aaaac

#150
1aaaaa
1aaaac

#155
0aaaaa
0aaaac

#160
1aaaaa
1aaaac

#165
0aaaaa
0aaaac

#170
1aaaaa
1aaaac

#175
0aaaaa
0aaaac

#180
1aaaaa
1aaaac

#185
0aaaaa
0aaaac

#190
1aaaaa
1aaaac

#195
0aaaaa
0aaaac

#200
1aaaaa
1aaaac

#205
0aaaaa
0aaaac

#210
1aaaaa
1aaaac

#215
0aaaaa
0aaaac

#220
1aaaaa
1aaaac

#225
0aaaaa
0aaaac

#230
1aaaaa
1aaaac

#235
0aaaaa
0aaaac

#240
1aaaaa
1aaaac

#245
0aaaaa
0aaaac

#250
1aaaaa
1aaaac

#255
0aaaaa
0aaaac

#260
1aaaaa
1aaaac

#265
0aaaaa
0aaaac

#270
1aaaaa
1aaaac

#275
0aaaaa
0aaaac

#280
1aaaaa
1aaaac

#285
0aaaaa
0aaaac

#290
1aaaaa
1aaaac

#295
0aaaaa
0aaaac

#300
1aaaaa
1aaaac

#305
0aaaaa
0aaaac

#310
1aaaaa
1aaaac

#315
0aaaaa
0aaaac

#320
1aaaaa
1aaaac

#325
0aaaaa
0aaaac

#330
1aaaaa
1aaaac

#335
0aaaaa
0aaaac

#340
1aaaaa
1aaaac

#345
0aaaaa
0aaaac

#350
1aaaaa
1aaaac

#355
0aaaaa
0aaaac

#360
1aaaaa
1aaaac

#365
0aaaaa
0aaaac

#370
1aaaaa
1aaaac

#375
0aaaaa
0aaaac

#380
1aaaaa
1aaaac

#385
0aaaaa
0aaaac

#390
1aaaaa
1aaaac

#395
0aaaaa
0aaaac

#400
1aaaaa
1aaaac

#405
0aaaaa
0aaaac

#410
1aaaaa
1aaaac

#415
0aaaaa
0aaaac

#420
1aaaaa
1aaaac

#425
0aaaaa
0aaaac

#430
1aaaaa
1aaaac

#435
0aaaaa
0aaaac

#440
1aaaaa
1aaaac

#445
0aaaaa
0aaaac

#450
1aaaaa
1aaaac

#455
0aaaaa
0aaaac

#460
1aaaaa
1aaaac

#465
0aaaaa
0aaaac

#470
1aaaaa
1aaaac

#475
0aaaaa
0aaaac

#480
1aaaaa
1aaaac

#485
0aaaaa
0aaaac

#490
1aaaaa
1aaaac

#495
0aaaaa
0aaaac

#500
1aaaaa
1aaaac

#505
0aaaaa
0aaaac

#510
1aaaaa
1aaaac

#515
0aaaaa
0aaaac

#520
1aaaaa
1aaaac

#525
0aaaaa
0aaaac

#530
1aaaaa
1aaaac

#535
0aaaaa
0aaaac

#540
1aaaaa
1aaaac

#545
0aaaaa
0aaaac

#550
1aaaaa
1aaaac

#555
0aaaaa
0aaaac

#560
1aaaaa
1aaaac

#565
0aaaaa
0aaaac

#570
1aaaaa
1aaaac

#575
0aaaaa
0aaaac

#580
1aaaaa
1aaaac

#585
0aaaaa
0aaaac

#590
1aaaaa
1aaaac

#595
0aaaaa
0aaaac

#600
1aaaaa
1aaaac

#605
0aaaaa
0aaaac

#610
1aaaaa
1aaaac

#615
0aaaaa
0aaaac

#620
1aaaaa
1aaaac

#625
0aaaaa
0aaaac

#630
1aaaaa
1aaaac

#635
0aaaaa
0aaaac

#640
1aaaaa
1aaaac

#645
0aaaaa
0aaaac

#650
1aaaaa
1aaaac

#655
0aaaaa
0aaaac

#660
1aaaaa
1aaaac

#665
0aaaaa
0aaaac

#670
1aaaaa
1aaaac

#675
0aaaaa
0aaaac

#680
1aaaaa
1aaaac

#685
0aaaaa
0aaaac

#690
1aaaaa
1aaaac

#695
0aaaaa
0aaaac

#700
1aaaaa
1aaaac

#705
0aaaaa
0aaaac

#710
1aaaaa
1aaaac

#715
0aaaaa
0aaaac

#720
1aaaaa
1aaaac

#725
0aaaaa
0aaaac

#730
1aaaaa
1aaaac

#735
0aaaaa
0aaaac

#740
1aaaaa
1aaaac

#745
0aaaaa
0aaaac

#750
1aaaaa
1aaaac

#755
0aaaaa
0aaaac

#760
1aaaaa
1aaaac

#765
0aaaaa
0aaaac

#770
1aaaaa
1aaaac

#775
0aaaaa
0aaaac

#780
1aaaaa
1aaaac

#785
0aaaaa
0aaaac

#790
1aaaaa
1aaaac

#795
0aaaaa
0aaaac

#800
1aaaaa
1aaaac

#805
0aaaaa
0aaaac

#810
1aaaaa
1aaaac

#815
0aaaaa
0aaaac

#820
1aaaaa
1aaaac

#825
0aaaaa
0aaaac

#830
1aaaaa
1aaaac

#835
0aaaaa
0aaaac

#840
1aaaaa
1aaaac

#845
0aaaaa
0aaaac

#850
1aaaaa
1aaaac

#855
0aaaaa
0aaaac

#860
1aaaaa
1aaaac

#865
0aaaaa
0aaaac

#870
1aaaaa
1aaaac

#875
0aaaaa
0aaaac

#880
1aaaaa
1aaaac

#885
0aaaaa
0aaaac

#890
1aaaaa
1aaaac

#895
0aaaaa
0aaaac

#900
1aaaaa
1aaaac

#905
0aaaaa
0aaaac

#910
1aaaaa
1aaaac

#915
0aaaaa
0aaaac

#920
1aaaaa
1aaaac

#925
0aaaaa
0aaaac

#930
1aaaaa
1aaaac

#935
0aaaaa
0aaaac

#940
1aaaaa
1aaaac

#945
0aaaaa
0aaaac

#950
1aaaaa
1aaaac

#955
0aaaaa
0aaaac

#960
1aaaaa
1aaaac

#965
0aaaaa
0aaaac

#970
1aaaaa
1aaaac

#975
0aaaaa
0aaaac

#980
1aaaaa
1aaaac

#985
0aaaaa
0aaaac

#990
1aaaaa
1aaaac

#995
0aaaaa
0aaaac

#1000
1aaaaa
1aaaac

#1005
0aaaaa
0aaaac

#1010
1aaaaa
1aaaac

#1015
0aaaaa
0aaaac

#1020
1aaaaa
1aaaac

#1025
0aaaaa
0aaaac

#1030
1aaaaa
1aaaac

#1035
0aaaaa
0aaaac

#1040
1aaaaa
1aaaac

#1045
0aaaaa
0aaaac

#1050
1aaaaa
1aaaac

#1055
0aaaaa
0aaaac

#1060
1aaaaa
1aaaac

#1065
0aaaaa
0aaaac

#1070
1aaaaa
1aaaac

#1075
0aaaaa
0aaaac

#1080
1aaaaa
1aaaac

#1085
0aaaaa
0aaaac

#1090
1aaaaa
1aaaac

#1095
0aaaaa
0aaaac

#1100
1aaaaa
1aaaac

#1105
0aaaaa
0aaaac

#1110
1aaaaa
1aaaac

#1115
0aaaaa
0aaaac

#1120
1aaaaa
1aaaac

#1125
0aaaaa
0aaaac

#1130
1aaaaa
1aaaac

#1135
0aaaaa
0aaaac

#1140
1aaaaa
1aaaac

#1145
0aaaaa
0aaaac

#1150
1aaaaa
1aaaac

#1155
0aaaaa
0aaaac

#1160
1aaaaa
1aaaac

#1165
0aaaaa
0aaaac

#1170
1aaaaa
1aaaac

#1175
0aaaaa
0aaaac

#1180
1aaaaa
1aaaac

#1185
0aaaaa
0aaaac

#1190
1aaaaa
1aaaac

#1195
0aaaaa
0aaaac

#1200
1aaaaa
1aaaac

#1205
0aaaaa
0aaaac

#1210
1aaaaa
1aaaac

#1215
0aaaaa
0aaaac

#1220
1aaaaa
1aaaac

#1225
0aaaaa
0aaaac

#1230
1aaaaa
1aaaac

#1235
0aaaaa
0aaaac

#1240
1aaaaa
1aaaac

#1245
0aaaaa
0aaaac

#1250
1aaaaa
1aaaac

#1255
0aaaaa
0aaaac

#1260
1aaaaa
1aaaac

#1265
0aaaaa
0aaaac

#1270
1aaaaa
1aaaac

#1275
0aaaaa
0aaaac

#1280
1aaaaa
1aaaac

#1285
0aaaaa
0aaaac

#1290
1aaaaa
1aaaac

#1295
0aaaaa
0aaaac

#1300
1aaaaa
1aaaac

#1305
0aaaaa
0aaaac

#1310
1aaaaa
1aaaac

#1315
0aaaaa
0aaaac

#1320
1aaaaa
1aaaac

#1325
0aaaaa
0aaaac

#1330
1aaaaa
1aaaac

#1335
0aaaaa
0aaaac

#1340
1aaaaa
1aaaac

#1345
0aaaaa
0aaaac

#1350
1aaaaa
1aaaac

#1355
0aaaaa
0aaaac

#1360
1aaaaa
1aaaac

#1365
0aaaaa
0aaaac

#1370
1aaaaa
1aaaac

#1375
0aaaaa
0aaaac

#1380
1aaaaa
1aaaac

#1385
0aaaaa
0aaaac

#1390
1aaaaa
1aaaac

#1395
0aaaaa
0aaaac

#1400
1aaaaa
1aaaac

#1405
0aaaaa
0aaaac

#1410
1aaaaa
1aaaac

#1415
0aaaaa
0aaaac

#1420
1aaaaa
1aaaac

#1425
0aaaaa
0aaaac

#1430
1aaaaa
1aaaac

#1435
0aaaaa
0aaaac

#1440
1aaaaa
1aaaac

#1445
0aaaaa
0aaaac

#1450
1aaaaa
1aaaac

#1455
0aaaaa
0aaaac

#1460
1aaaaa
1aaaac

#1465
0aaaaa
0aaaac

#1470
1aaaaa
1aaaac

#1475
0aaaaa
0aaaac

#1480
1aaaaa
1aaaac

#1485
0aaaaa
0aaaac

#1490
1aaaaa
1aaaac

#1495
0aaaaa
0aaaac

#1500
1aaaaa
1aaaac

#1505
0aaaaa
0aaaac

#1510
1aaaaa
1aaaac

#1515
0aaaaa
0aaaac

#1520
1aaaaa
1aaaac

#1525
0aaaaa
0aaaac

#1530
1aaaaa
1aaaac

#1535
0aaaaa
0aaaac

#1540
1aaaaa
1aaaac

#1545
0aaaaa
0aaaac

#1550
1aaaaa
1aaaac

#1555
0aaaaa
0aaaac

#1560
1aaaaa
1aaaac

#1565
0aaaaa
0aaaac

#1570
1aaaaa
1aaaac

#1575
0aaaaa
0aaaac

#1580
1aaaaa
1aaaac

#1585
0aaaaa
0aaaac

#1590
1aaaaa
1aaaac

#1595
0aaaaa
0aaaac

#1600
1aaaaa
1aaaac

#1605
0aaaaa
0aaaac

#1610
1aaaaa
1aaaac

#1615
0aaaaa
0aaaac

#1620
1aaaaa
1aaaac

#1625
0aaaaa
0aaaac

#1630
1aaaaa
1aaaac

#1635
0aaaaa
0aaaac

#1640
1aaaaa
1aaaac

#1645
0aaaaa
0aaaac

#1650
1aaaaa
1aaaac

#1655
0aaaaa
0aaaac

#1660
1aaaaa
1aaaac

#1665
0aaaaa
0aaaac

#1670
1aaaaa
1aaaac

#1675
0aaaaa
0aaaac

#1680
1aaaaa
1aaaac

#1685
0aaaaa
0aaaac

#1690
1aaaaa
1aaaac

#1695
0aaaaa
0aaaac

#1700
1aaaaa
1aaaac

#1705
0aaaaa
0aaaac

#1710
1aaaaa
1aaaac

#1715
0aaaaa
0aaaac

#1720
1aaaaa
1aaaac

#1725
0aaaaa
0aaaac

#1730
1aaaaa
1aaaac

#1735
0aaaaa
0aaaac

#1740
1aaaaa
1aaaac

#1745
0aaaaa
0aaaac

#1750
1aaaaa
1aaaac

#1755
0aaaaa
0aaaac

#1760
1aaaaa
1aaaac

#1765
0aaaaa
0aaaac

#1770
1aaaaa
1aaaac

#1775
0aaaaa
0aaaac

#1780
1aaaaa
1aaaac

#1785
0aaaaa
0aaaac

#1790
1aaaaa
1aaaac

#1795
0aaaaa
0aaaac

#1800
1aaaaa
1aaaac

#1805
0aaaaa
0aaaac

#1810
1aaaaa
1aaaac

#1815
0aaaaa
0aaaac

#1820
1aaaaa
1aaaac

#1825
0aaaaa
0aaaac

#1830
1aaaaa
1aaaac

#1835
0aaaaa
0aaaac

#1840
1aaaaa
1aaaac

#1845
0aaaaa
0aaaac

#1850
1aaaaa
1aaaac

#1855
0aaaaa
0aaaac

#1860
1aaaaa
1aaaac

#1865
0aaaaa
0aaaac

#1870
1aaaaa
1aaaac

#1875
0aaaaa
0aaaac

#1880
1aaaaa
1aaaac

#1885
0aaaaa
0aaaac

#1890
1aaaaa
1aaaac

#1895
0aaaaa
0aaaac

#1900
1aaaaa
1aaaac

#1905
0aaaaa
0aaaac

#1910
1aaaaa
1aaaac

#1915
0aaaaa
0aaaac

#1920
1aaaaa
1aaaac

#1925
0aaaaa
0aaaac

#1930
1aaaaa
1aaaac

#1935
0aaaaa
0aaaac

#1940
1aaaaa
1aaaac

#1945
0aaaaa
0aaaac

#1950
1aaaaa
1aaaac

#1955
0aaaaa
0aaaac

#1960
1aaaaa
1aaaac

#1965
0aaaaa
0aaaac

#1970
1aaaaa
1aaaac

#1975
0aaaaa
0aaaac

#1980
1aaaaa
1aaaac

#1985
0aaaaa
0aaaac

#1990
1aaaaa
1aaaac

#1995
0aaaaa
0aaaac

#2000
1aaaaa
1aaaac

#2005
0aaaaa
0aaaac

#2010
1aaaaa
1aaaac

#2015
0aaaaa
0aaaac

#2020
1aaaaa
1aaaac

#2025
0aaaaa
0aaaac

#2030
1aaaaa
1aaaac

#2035
0aaaaa
0aaaac

#2040
1aaaaa
1aaaac

#2045
0aaaaa
0aaaac

#2050
1aaaaa
1aaaac

#2055
0aaaaa
0aaaac

#2060
1aaaaa
1aaaac

#2065
0aaaaa
0aaaac

#2070
1aaaaa
1aaaac

#2075
0aaaaa
0aaaac

#2080
1aaaaa
1aaaac

#2085
0aaaaa
0aaaac

#2090
1aaaaa
1aaaac

#2095
0aaaaa
0aaaac

#2100
1aaaaa
1aaaac

#2105
0aaaaa
0aaaac

#2110
1aaaaa
1aaaac

#2115
0aaaaa
0aaaac

#2120
1aaaaa
1aaaac

#2125
0aaaaa
0aaaac

#2130
1aaaaa
1aaaac

#2135
0aaaaa
0aaaac

#2140
1aaaaa
1aaaac

#2145
0aaaaa
0aaaac

#2150
1aaaaa
1aaaac

#2155
0aaaaa
0aaaac

#2160
1aaaaa
1aaaac

#2165
0aaaaa
0aaaac

#2170
1aaaaa
1aaaac

#2175
0aaaaa
0aaaac

#2180
1aaaaa
1aaaac

#2185
0aaaaa
0aaaac

#2190
1aaaaa
1aaaac

#2195
0aaaaa
0aaaac

#2200
1aaaaa
1aaaac

#2205
0aaaaa
0aaaac

#2210
1aaaaa
1aaaac

#2215
0aaaaa
0aaaac

#2220
1aaaaa
1aaaac

#2225
0aaaaa
0aaaac

#2230
1aaaaa
1aaaac

#2235
0aaaaa
0aaaac

#2240
1aaaaa
1aaaac

#2245
0aaaaa
0aaaac

#2250
1aaaaa
1aaaac

#2255
0aaaaa
0aaaac

#2260
1aaaaa
1aaaac

#2265
0aaaaa
0aaaac

#2270
1aaaaa
1aaaac

#2275
0aaaaa
0aaaac

#2280
1aaaaa
1aaaac

#2285
0aaaaa
0aaaac

#2290
1aaaaa
1aaaac

#2295
0aaaaa
0aaaac

#2300
1aaaaa
1aaaac

#2305
0aaaaa
0aaaac

#2310
1aaaaa
1aaaac

#2315
0aaaaa
0aaaac

#2320
1aaaaa
1aaaac

#2325
0aaaaa
0aaaac

#2330
1aaaaa
1aaaac

#2335
0aaaaa
0aaaac

#2340
1aaaaa
1aaaac

#2345
0aaaaa
0aaaac

#2350
1aaaaa
1aaaac

#2355
0aaaaa
0aaaac

#2360
1aaaaa
1aaaac

#2365
0aaaaa
0aaaac

#2370
1aaaaa
1aaaac

#2375
0aaaaa
0aaaac

#2380
1aaaaa
1aaaac

#2385
0aaaaa
0aaaac

#2390
1aaaaa
1aaaac

#2395
0aaaaa
0aaaac

#2400
1aaaaa
1aaaac

#2405
0aaaaa
0aaaac

#2410
1aaaaa
1aaaac

#2415
0aaaaa
0aaaac

#2420
1aaaaa
1aaaac

#2425
0aaaaa
0aaaac

#2430
1aaaaa
1aaaac

#2435
0aaaaa
0aaaac

#2440
1aaaaa
1aaaac

#2445
0aaaaa
0aaaac

#2450
1aaaaa
1aaaac

#2455
0aaaaa
0aaaac

#2460
1aaaaa
1aaaac

#2465
0aaaaa
0aaaac

#2470
1aaaaa
1aaaac

#2475
0aaaaa
0aaaac

#2480
1aaaaa
1aaaac

#2485
0aaaaa
0aaaac

#2490
1aaaaa
1aaaac

#2495
0aaaaa
0aaaac

#2500
1aaaaa
1aaaac

#2505
0aaaaa
0aaaac

#2510
1aaaaa
1aaaac

#2515
0aaaaa
0aaaac

#2520
1aaaaa
1aaaac

#2525
0aaaaa
0aaaac

#2530
1aaaaa
1aaaac

#2535
0aaaaa
0aaaac

#2540
1aaaaa
1aaaac

#2545
0aaaaa
0aaaac

#2550
1aaaaa
1aaaac

#2555
0aaaaa
0aaaac

#2560
1aaaaa
1aaaac

#2565
0aaaaa
0aaaac

#2570
1aaaaa
1aaaac

#2575
0aaaaa
0aaaac

#2580
1aaaaa
1aaaac

#2585
0aaaaa
0aaaac

#2590
1aaaaa
1aaaac

#2595
0aaaaa
0aaaac

#2600
1aaaaa
1aaaac
1aaacb
b10000000000000 aaacc
b1000 aaacd
b111 aaace
b1 aaacf

#2605
0aaaaa
0aaaac

#2610
1aaaaa
1aaaac
1aaabm
b100101100000000000000001101111 aaabn
b1000 aaabp
0aaacb
b0 aaacc
b0 aaacd
b0 aaace
b0 aaacf

#2615
0aaaaa
0aaaac

#2620
1aaaaa
1aaaac
b100101100000000000000001101111 aaabe
b0 aaabn

#2625
0aaaaa
0aaaac

#2630
1aaaaa
1aaaac
b0 aaabe

#2635
0aaaaa
0aaaac

#2640
1aaaaa
1aaaac

#2645
0aaaaa
0aaaac

#2650
1aaaaa
1aaaac
b10001010000000000000001101111 aaabn

#2655
0aaaaa
0aaaac

#2660
1aaaaa
1aaaac
b10001010000000000000001101111 aaabe
b0 aaabn

#2665
0aaaaa
0aaaac

#2670
1aaaaa
1aaaac
b0 aaabe

#2675
0aaaaa
0aaaac

#2680
1aaaaa
1aaaac
1aaabq

#2685
0aaaaa
0aaaac

#2690
1aaaaa
1aaaac
0aaabm
b0 aaabp
0aaabq

#2695
0aaaaa
0aaaac

#2700
1aaaaa
1aaaac

#2705
0aaaaa
0aaaac

#2710
1aaaaa
1aaaac

#2715
0aaaaa
0aaaac

#2720
1aaaaa
1aaaac

#2725
0aaaaa
0aaaac

#2730
1aaaaa
1aaaac

#2735
0aaaaa
0aaaac

#2740
1aaaaa
1aaaac
1aaacb
b10001001000000 aaacc
b1000 aaacd
b111 aaace
b1 aaacf

#2745
0aaaaa
0aaaac

#2750
1aaaaa
1aaaac
1aaabm
b111110000010010111000000011 aaabn
b1000 aaabp
0aaacb
b10000000000000 aaacc

#2755
0aaaaa
0aaaac

#2760
1aaaaa
1aaaac
b111110000010010111000000011 aaabe
b1000000000010010111010000011 aaabn

#2765
0aaaaa
0aaaac

#2770
1aaaaa
1aaaac
b1000000000010010111010000011 aaabe
b1000010000010010111100000011 aaabn

#2775
0aaaaa
0aaaac

#2780
1aaaaa
1aaaac
b1000010000010010111100000011 aaabe
b1000100000010010111110000011 aaabn

#2785
0aaaaa
0aaaac

#2790
1aaaaa
1aaaac
b1000100000010010111110000011 aaabe
b1000110000010000000100010011 aaabn

#2795
0aaaaa
0aaaac

#2800
1aaaaa
1aaaac
b1000110000010000000100010011 aaabe
b110000001000000000000001110011 aaabn

#2805
0aaaaa
0aaaac

#2810
1aaaaa
1aaaac
b110000001000000000000001110011 aaabe
b101000100110111 aaabn

#2815
0aaaaa
0aaaac

#2820
1aaaaa
1aaaac
b101000100110111 aaabe
b11001111100000010000000100010011 aaabn
1aaabq

#2825
0aaaaa
0aaaac

#2830
1aaaaa
1aaaac
b11001111100000010000000100010011 aaabe
0aaabm
b0 aaabn
b0 aaabp
0aaabq

#2835
0aaaaa
0aaaac

#2840
1aaaaa
1aaaac
b101000100110111 aaabe

#2845
0aaaaa
0aaaac

#2850
1aaaaa
1aaaac

#2855
0aaaaa
0aaaac

#2860
1aaaaa
1aaaac

#2865
0aaaaa
0aaaac

#2870
1aaaaa
1aaaac

#2875
0aaaaa
0aaaac

#2880
1aaaaa
1aaaac
1aaacb
b10001001100000 aaacc

#2885
0aaaaa
0aaaac

#2890
1aaaaa
1aaaac
1aaabm
b10001010110111 aaabn
b1000 aaabp
0aaacb
b10001001000000 aaacc

#2895
0aaaaa
0aaaac

#2900
1aaaaa
1aaaac
b10001010110111 aaabe
b10010010000101000001010010011 aaabn

#2905
0aaaaa
0aaaac

#2910
1aaaaa
1aaaac
b10010010000101000001010010011 aaabe
b110000010100101001000001110011 aaabn

#2915
0aaaaa
0aaaac

#2920
1aaaaa
1aaaac
b110000010100101001000001110011 aaabe
b100001010110111 aaabn

#2925
0aaaaa
0aaaac

#2930
1aaaaa
1aaaac
b100001010110111 aaabe
b11001110100000101000001010010011 aaabn

#2935
0aaaaa
0aaaac

#2940
1aaaaa
1aaaac
b11001110100000101000001010010011 aaabe
b101001100110111 aaabn

#2945
0aaaaa
0aaaac

#2950
1aaaaa
1aaaac
b101001100110111 aaabe
b11010000100000110000001100010011 aaabn

#2955
0aaaaa
0aaaac

#2960
1aaaaa
1aaaac
b11010000100000110000001100010011 aaabe
b101010000000100011 aaabn
1aaabq

#2965
0aaaaa
0aaaac

#2970
1aaaaa
1aaaac
b101010000000100011 aaabe
0aaabm
b0 aaabn
b0 aaabp
0aaabq

#2975
0aaaaa
0aaaac

#2980
1aaaaa
1aaaac
b11010000100000110000001100010011 aaabe

#2985
0aaaaa
0aaaac

#2990
1aaaaa
1aaaac

#2995
0aaaaa
0aaaac

#3000
1aaaaa
1aaaac

#3005
0aaaaa
0aaaac

#3010
1aaaaa
1aaaac

#3015
0aaaaa
0aaaac

#3020
1aaaaa
1aaaac

#3025
0aaaaa
0aaaac

#3030
1aaaaa
1aaaac

#3035
0aaaaa
0aaaac

#3040
1aaaaa
1aaaac

#3045
0aaaaa
0aaaac

#3050
1aaaaa
1aaaac

#3055
0aaaaa
0aaaac

#3060
1aaaaa
1aaaac

#3065
0aaaaa
0aaaac

#3070
1aaaaa
1aaaac

#3075
0aaaaa
0aaaac

#3080
1aaaaa
1aaaac
1aaacb
b10001010000000 aaacc

#3085
0aaaaa
0aaaac

#3090
1aaaaa
1aaaac
1aaabm
b10000101000001010010011 aaabn
b1000 aaabp
0aaacb
b10001001100000 aaacc

#3095
0aaaaa
0aaaac

#3100
1aaaaa
1aaaac
b10000101000001010010011 aaabe
b11111110011000101100110011100011 aaabn
1aaabr
b11110011101000 aaabs
b100 aaabt
b1 aaabv
1aaabw
b1111 aaaby
1aaabz

#3105
0aaaaa
0aaaac

#3110
1aaaaa
1aaaac
b11111110011000101100110011100011 aaabe
1aaabi
b100 aaabk
b10100000000000000011101111 aaabn
0aaabr
b0 aaabs
b0 aaabt
b0 aaabv
0aaabw
b0 aaaby
0aaabz

#3115
0aaaaa
0aaaac

#3120
1aaaaa
1aaaac
b10100000000000000011101111 aaabe
0aaabi
b0 aaabk
b10010100110111 aaabn

#3125
0aaaaa
0aaaac

#3130
1aaaaa
1aaaac
b10010100110111 aaabe
b10000001010000010100010011 aaabn

#3135
0aaaaa
0aaaac

#3140
1aaaaa
1aaaac
b10000001010000010100010011 aaabe
b1010010010100000011 aaabn

#3145
0aaaaa
0aaaac

#3150
1aaaaa
1aaaac
b1010010010100000011 aaabe
b10010110110111 aaabn

#3155
0aaaaa
0aaaac

#3160
1aaaaa
1aaaac
b10010110110111 aaabe
b10010001011000010110010011 aaabn
1aaabq

#3165
0aaaaa
0aaaac

#3170
1aaaaa
1aaaac
b10010001011000010110010011 aaabe
0aaabm
b0 aaabn
b0 aaabp
0aaabq

#3175
0aaaaa
0aaaac

#3180
1aaaaa
1aaaac
b10010110110111 aaabe

#3185
0aaaaa
0aaaac

#3190
1aaaaa
1aaaac

#3195
0aaaaa
0aaaac

#3200
1aaaaa
1aaaac

#3205
0aaaaa
0aaaac

#3210
1aaaaa
1aaaac

#3215
0aaaaa
0aaaac

#3220
1aaaaa
1aaaac

#3225
0aaaaa
0aaaac

#3230
1aaaaa
1aaaac

#3235
0aaaaa
0aaaac

#3240
1aaaaa
1aaaac

#3245
0aaaaa
0aaaac

#3250
1aaaaa
1aaaac

#3255
0aaaaa
0aaaac

#3260
1aaaaa
1aaaac
1aaabr
b11110011101100 aaabs
b100 aaabt
b1 aaabv
1aaabw
b1111 aaaby
1aaabz

#3265
0aaaaa
0aaaac

#3270
1aaaaa
1aaaac
1aaabi
b100 aaabk
0aaabr
b11110011101000 aaabs
0aaabw

#3275
0aaaaa
0aaaac

#3280
1aaaaa
1aaaac
0aaabi
b0 aaabk

#3285
0aaaaa
0aaaac

#3290
1aaaaa
1aaaac

#3295
0aaaaa
0aaaac

#3300
1aaaaa
1aaaac
1aaabr
b11110011110000 aaabs
1aaabw

#3305
0aaaaa
0aaaac

#3310
1aaaaa
1aaaac
1aaabi
b100 aaabk
0aaabr
b11110011101100 aaabs
0aaabw

#3315
0aaaaa
0aaaac

#3320
1aaaaa
1aaaac
0aaabi
b0 aaabk

#3325
0aaaaa
0aaaac

#3330
1aaaaa
1aaaac

#3335
0aaaaa
0aaaac

#3340
1aaaaa
1aaaac
1aaabr
b11110011110100 aaabs
1aaabw

#3345
0aaaaa
0aaaac

#3350
1aaaaa
1aaaac
1aaabi
b100 aaabk
0aaabr
b11110011110000 aaabs
0aaabw

